<svg width="21" height="18" viewBox="0 0 21 18" fill="none" xmlns="http://www.w3.org/2000/svg">
<path fill-rule="evenodd" clip-rule="evenodd" d="M8.64881 17.3413C9.12805 16.7613 9.11366 15.8331 8.61668 15.2683L4.42634 10.505L18.9068 10.2806C19.5971 10.2699 20.1465 9.60486 20.1339 8.79529C20.1214 7.98573 19.5516 7.33808 18.8614 7.34878L4.3809 7.57324L8.42158 2.68236C8.90082 2.10232 8.88643 1.17431 8.38945 0.609393C7.89247 0.0444803 7.10123 0.0567454 6.62199 0.636791L0.486345 8.06312C0.00710876 8.64317 0.0214939 9.57117 0.518478 10.1361L6.88136 17.3687C7.37834 17.9336 8.16958 17.9214 8.64881 17.3413Z" fill="white"/>
</svg>
