<svg width="36" height="36" viewBox="0 0 36 36" fill="none" xmlns="http://www.w3.org/2000/svg">
<path d="M25.503 19.5C26.3314 19.5 27.003 20.1716 27.003 21C27.003 21.7693 26.4239 22.4033 25.6779 22.4899L25.503 22.5H8.12551L13.0637 27.4393C13.6044 27.9801 13.646 28.8309 13.1884 29.4193L13.0637 29.5607C12.5229 30.1014 11.6721 30.143 11.0837 29.6854L10.9423 29.5607L3.44235 22.0607C2.53848 21.1568 3.11151 19.6392 4.33256 19.509L4.50301 19.5H25.503ZM24.9193 6.31456L25.0607 6.43934L32.5607 13.9393C33.4645 14.8432 32.8915 16.3608 31.6704 16.491L31.5 16.5H10.5C9.67157 16.5 9 15.8284 9 15C9 14.2307 9.57906 13.5967 10.3251 13.5101L10.5 13.5H27.8775L22.9393 8.56066C22.3986 8.01993 22.357 7.16909 22.8146 6.58065L22.9393 6.43934C23.4801 5.89861 24.3309 5.85702 24.9193 6.31456Z" fill="white"/>
</svg>
