<svg width="150" height="150" viewBox="0 0 150 150" fill="none" xmlns="http://www.w3.org/2000/svg">
<g clip-path="url(#clip0_2_90)">
<path fill-rule="evenodd" clip-rule="evenodd" d="M75 150C94.8912 150 113.968 142.098 128.033 128.033C142.098 113.968 150 94.8912 150 75C150 55.1088 142.098 36.0322 128.033 21.967C113.968 7.90176 94.8912 0 75 0C55.1088 0 36.0322 7.90176 21.967 21.967C7.90176 36.0322 0 55.1088 0 75C0 94.8912 7.90176 113.968 21.967 128.033C36.0322 142.098 55.1088 150 75 150ZM37.5 62.5C34.1848 62.5 31.0054 63.817 28.6612 66.1612C26.317 68.5054 25 71.6848 25 75C25 78.3152 26.317 81.4946 28.6612 83.8388C31.0054 86.183 34.1848 87.5 37.5 87.5H112.5C115.815 87.5 118.995 86.183 121.339 83.8388C123.683 81.4946 125 78.3152 125 75C125 71.6848 123.683 68.5054 121.339 66.1612C118.995 63.817 115.815 62.5 112.5 62.5H37.5Z" fill="#F84D4D"/>
</g>
<defs>
<clipPath id="clip0_2_90">
<rect width="150" height="150" fill="white"/>
</clipPath>
</defs>
</svg>
