<svg width="3007" height="3007" viewBox="0 0 3007 3007" fill="none" xmlns="http://www.w3.org/2000/svg">
<g clip-path="url(#clip0_113_2)">
<mask id="mask0_113_2" style="mask-type:luminance" maskUnits="userSpaceOnUse" x="0" y="0" width="3007" height="3007">
<path d="M3007 0H0V3007H3007V0Z" fill="white"/>
</mask>
<g mask="url(#mask0_113_2)">
<path fill-rule="evenodd" clip-rule="evenodd" d="M2758.11 2331.2C2920.15 2085.54 3006.53 1797.72 3006.55 1503.43C3006.53 1117.05 2857.78 745.507 2591.16 465.86C2324.53 186.218 1960.5 19.9346 1574.57 1.50085C1550.7 0 1526.84 0 1502.68 0H1502.68C1478.51 0 1454.49 0.600326 1430.63 1.50085C1136.68 15.6603 853.342 115.773 615.747 289.43C378.15 463.087 196.738 702.652 93.9986 978.43C-8.74047 1254.21 -28.2902 1554.07 37.773 1840.86C103.836 2127.64 252.607 2388.73 465.645 2591.77C678.684 2794.8 946.623 2930.86 1236.25 2983.06C1525.88 3035.27 1824.46 3001.33 2094.98 2885.46C2365.5 2769.58 2596.07 2576.87 2758.11 2331.2ZM2406.05 600.9C2904.5 1099.34 2904.5 1907.48 2406.05 2405.92C1907.61 2904.36 1099.48 2904.36 601.029 2405.92C102.588 1907.48 102.588 1099.34 601.029 600.9C1099.48 102.456 1907.61 102.456 2406.05 600.9Z" fill="url(#paint0_linear_113_2)"/>
<path fill-rule="evenodd" clip-rule="evenodd" d="M2983.89 1503.43C2983.89 2320.98 2321.13 2983.74 1503.57 2983.74C686.022 2983.74 23.2635 2320.98 23.2635 1503.43C23.2635 685.871 686.022 23.1135 1503.57 23.1135C2321.13 23.1135 2983.89 685.871 2983.89 1503.43ZM2406.05 600.9C2904.5 1099.34 2904.5 1907.48 2406.05 2405.92C1907.61 2904.36 1099.48 2904.36 601.029 2405.92C102.588 1907.48 102.588 1099.34 601.029 600.9C1099.48 102.456 1907.61 102.456 2406.05 600.9Z" fill="url(#paint1_radial_113_2)"/>
<path d="M1190.49 2846.26C1192.27 2837.26 1196.68 2828.99 1203.16 2822.49C1209.64 2816 1217.9 2811.57 1226.89 2809.77C1235.89 2807.97 1245.22 2808.88 1253.69 2812.38C1262.17 2815.89 1269.43 2821.83 1274.53 2829.45C1279.63 2837.07 1282.36 2846.04 1282.37 2855.21C1282.38 2864.39 1279.66 2873.36 1274.57 2880.99C1269.48 2888.62 1262.23 2894.57 1253.76 2898.08C1245.29 2901.6 1235.96 2902.52 1226.97 2900.74C1214.91 2898.34 1204.29 2891.26 1197.45 2881.04C1190.61 2870.83 1188.11 2858.32 1190.49 2846.26Z" fill="url(#paint2_radial_113_2)"/>
<path d="M1728.41 2863.81C1726.63 2854.85 1727.54 2845.57 1731.04 2837.13C1734.54 2828.68 1740.46 2821.47 1748.06 2816.39C1755.65 2811.32 1764.58 2808.6 1773.72 2808.6C1782.86 2808.59 1791.79 2811.29 1799.39 2816.36C1806.99 2821.43 1812.92 2828.63 1816.43 2837.07C1819.94 2845.51 1820.87 2854.79 1819.11 2863.76C1817.34 2872.72 1812.96 2880.96 1806.51 2887.44C1800.07 2893.91 1791.84 2898.33 1782.89 2900.14C1776.93 2901.34 1770.78 2901.36 1764.82 2900.18C1758.85 2899 1753.17 2896.66 1748.11 2893.28C1743.05 2889.91 1738.7 2885.57 1735.32 2880.51C1731.94 2875.46 1729.59 2869.78 1728.41 2863.81Z" fill="url(#paint3_radial_113_2)"/>
<path d="M775.201 332.744C780.312 340.366 783.048 349.334 783.062 358.512C783.076 367.69 780.362 376.666 775.274 384.303C770.182 391.939 762.939 397.894 754.464 401.412C745.984 404.93 736.655 405.853 727.653 404.066C718.65 402.277 710.381 397.859 703.89 391.368C697.399 384.878 692.981 376.608 691.197 367.605C689.41 358.603 690.331 349.272 693.852 340.796C697.372 332.319 703.326 325.077 710.963 319.986C716.014 316.595 721.689 314.235 727.653 313.041C733.621 311.846 739.763 311.842 745.731 313.027C751.7 314.213 757.374 316.564 762.43 319.947C767.491 323.331 771.827 327.679 775.201 332.744Z" fill="url(#paint4_radial_113_2)"/>
<path d="M382.572 700.457C390.21 705.549 396.165 712.792 399.684 721.267C403.203 729.743 404.128 739.075 402.341 748.078C400.554 757.081 396.136 765.35 389.647 771.841C383.157 778.331 374.888 782.75 365.885 784.538C356.883 786.326 347.552 785.4 339.075 781.884C330.598 778.364 323.355 772.409 318.264 764.772C313.172 757.136 310.461 748.161 310.474 738.984C310.487 729.807 313.223 720.836 318.335 713.213C321.708 708.153 326.048 703.803 331.105 700.42C336.162 697.037 341.837 694.686 347.805 693.498C353.773 692.311 359.916 692.316 365.883 693.512C371.849 694.704 377.521 697.065 382.572 700.457Z" fill="url(#paint5_radial_113_2)"/>
<path d="M160.594 1190.49C169.606 1192.24 177.897 1196.63 184.413 1203.1C190.931 1209.57 195.382 1217.82 197.202 1226.82C199.023 1235.82 198.132 1245.16 194.641 1253.65C191.15 1262.14 185.217 1269.41 177.594 1274.52C169.971 1279.64 161.001 1282.38 151.819 1282.39C142.638 1282.41 133.658 1279.7 126.019 1274.61C118.38 1269.51 112.424 1262.27 108.907 1253.79C105.39 1245.3 104.469 1235.97 106.262 1226.97C108.656 1214.94 115.716 1204.35 125.898 1197.51C136.081 1190.68 148.555 1188.15 160.594 1190.49Z" fill="url(#paint6_radial_113_2)"/>
<path d="M143.183 1728.56C152.146 1726.81 161.426 1727.76 169.852 1731.28C178.277 1734.79 185.472 1740.73 190.528 1748.33C195.583 1755.94 198.274 1764.87 198.259 1774C198.245 1783.13 195.527 1792.05 190.447 1799.64C185.367 1807.23 178.154 1813.14 169.717 1816.64C161.28 1820.13 151.997 1821.05 143.04 1819.27C134.083 1817.5 125.853 1813.11 119.388 1806.66C112.922 1800.21 108.511 1791.99 106.712 1783.04C105.511 1777.06 105.504 1770.91 106.688 1764.93C107.874 1758.96 110.229 1753.28 113.618 1748.21C117.008 1743.15 121.365 1738.81 126.438 1735.43C131.512 1732.06 137.203 1729.72 143.183 1728.56Z" fill="url(#paint7_radial_113_2)"/>
<path d="M332.743 2231.65C340.368 2226.56 349.331 2223.84 358.501 2223.83C367.67 2223.83 376.634 2226.55 384.26 2231.64C391.886 2236.73 397.831 2243.97 401.344 2252.44C404.858 2260.91 405.782 2270.23 404 2279.22C402.218 2288.22 397.81 2296.48 391.332 2302.97C384.854 2309.46 376.598 2313.89 367.607 2315.69C358.616 2317.48 349.293 2316.58 340.817 2313.08C332.341 2309.58 325.092 2303.65 319.986 2296.04C316.572 2290.98 314.192 2285.3 312.985 2279.32C311.778 2273.33 311.767 2267.17 312.954 2261.19C314.139 2255.2 316.499 2249.51 319.895 2244.44C323.292 2239.37 327.659 2235.02 332.743 2231.65Z" fill="url(#paint8_radial_113_2)"/>
<path d="M700.608 2624.28C705.696 2616.64 712.939 2610.69 721.419 2607.17C729.894 2603.64 739.222 2602.72 748.225 2604.51C757.228 2606.29 765.502 2610.71 771.988 2617.2C778.478 2623.69 782.897 2631.96 784.685 2640.97C786.473 2649.97 785.551 2659.3 782.031 2667.77C778.515 2676.25 772.561 2683.5 764.924 2688.59C757.287 2693.68 748.312 2696.39 739.135 2696.38C729.954 2696.36 720.988 2693.63 713.365 2688.51C708.3 2685.14 703.954 2680.8 700.567 2675.74C697.184 2670.69 694.833 2665.01 693.65 2659.05C692.463 2653.08 692.467 2646.93 693.664 2640.97C694.855 2635 697.216 2629.33 700.608 2624.28Z" fill="url(#paint9_radial_113_2)"/>
<path d="M2231.8 2674.11C2226.71 2666.48 2223.98 2657.52 2223.98 2648.35C2223.98 2639.18 2226.7 2630.22 2231.79 2622.59C2236.88 2614.96 2244.12 2609.02 2252.59 2605.51C2261.06 2601.99 2270.38 2601.07 2279.38 2602.85C2288.37 2604.63 2296.63 2609.04 2303.12 2615.52C2309.61 2621.99 2314.04 2630.25 2315.84 2639.24C2317.64 2648.23 2316.73 2657.56 2313.23 2666.03C2309.73 2674.51 2303.8 2681.76 2296.19 2686.86C2291.13 2690.28 2285.44 2692.66 2279.46 2693.86C2273.48 2695.07 2267.32 2695.08 2261.34 2693.9C2255.35 2692.71 2249.66 2690.35 2244.59 2686.96C2239.52 2683.56 2235.17 2679.19 2231.8 2674.11Z" fill="url(#paint10_radial_113_2)"/>
<path d="M2624.43 2306.39C2616.78 2301.32 2610.81 2294.09 2607.28 2285.62C2603.75 2277.15 2602.8 2267.82 2604.57 2258.82C2606.34 2249.81 2610.74 2241.53 2617.21 2235.04C2623.69 2228.53 2631.95 2224.09 2640.94 2222.29C2649.94 2220.48 2659.27 2221.38 2667.75 2224.88C2676.24 2228.37 2683.5 2234.31 2688.6 2241.93C2693.71 2249.56 2696.44 2258.52 2696.46 2267.7C2696.47 2276.88 2693.75 2285.85 2688.67 2293.48C2685.3 2298.56 2680.97 2302.92 2675.92 2306.32C2670.87 2309.72 2665.2 2312.08 2659.23 2313.29C2653.26 2314.48 2647.11 2314.49 2641.14 2313.31C2635.17 2312.13 2629.49 2309.77 2624.43 2306.39Z" fill="url(#paint11_radial_113_2)"/>
<path d="M2846.41 1816.2C2837.45 1814.4 2829.23 1809.98 2822.78 1803.51C2816.34 1797.03 2811.96 1788.79 2810.19 1779.83C2808.42 1770.86 2809.35 1761.57 2812.86 1753.14C2816.37 1744.71 2822.3 1737.5 2829.9 1732.43C2837.5 1727.36 2846.44 1724.66 2855.57 1724.67C2864.71 1724.67 2873.64 1727.38 2881.24 1732.46C2888.83 1737.54 2894.75 1744.76 2898.25 1753.2C2901.75 1761.63 2902.67 1770.93 2900.89 1779.89C2899.71 1785.85 2897.35 1791.53 2893.98 1796.59C2890.59 1801.64 2886.25 1805.98 2881.19 1809.36C2876.13 1812.73 2870.45 1815.07 2864.48 1816.25C2858.51 1817.42 2852.37 1817.41 2846.41 1816.2Z" fill="url(#paint12_radial_113_2)"/>
<path d="M2863.97 1278.3C2854.98 1280.1 2845.65 1279.2 2837.17 1275.71C2828.69 1272.22 2821.43 1266.29 2816.32 1258.68C2811.21 1251.06 2808.47 1242.1 2808.45 1232.93C2808.43 1223.76 2811.13 1214.79 2816.21 1207.15C2821.28 1199.51 2828.51 1193.55 2836.98 1190.02C2845.44 1186.49 2854.76 1185.55 2863.76 1187.32C2872.76 1189.08 2881.04 1193.48 2887.54 1199.95C2894.04 1206.42 2898.48 1214.67 2900.29 1223.66C2902.68 1235.72 2900.2 1248.23 2893.39 1258.47C2886.59 1268.71 2876.01 1275.83 2863.97 1278.3Z" fill="url(#paint13_radial_113_2)"/>
<path d="M2674.41 775.05C2666.8 780.183 2657.84 782.943 2648.65 782.98C2639.47 783.016 2630.49 780.33 2622.84 775.256C2615.19 770.182 2609.21 762.953 2605.68 754.482C2602.14 746.011 2601.19 736.683 2602.96 727.671C2604.73 718.664 2609.13 710.385 2615.61 703.881C2622.09 697.376 2630.35 692.939 2639.35 691.133C2648.35 689.327 2657.68 690.235 2666.17 693.737C2674.65 697.243 2681.91 703.184 2687.02 710.812C2693.84 721.011 2696.34 733.497 2693.98 745.534C2691.62 757.576 2684.58 768.188 2674.41 775.05Z" fill="url(#paint14_radial_113_2)"/>
<path d="M2306.54 382.422C2301.42 390.004 2294.17 395.901 2285.71 399.371C2277.24 402.841 2267.93 403.73 2258.96 401.924C2249.99 400.118 2241.76 395.7 2235.29 389.225C2228.83 382.749 2224.42 374.507 2222.64 365.534C2220.84 356.561 2221.75 347.259 2225.23 338.799C2228.71 330.338 2234.62 323.097 2242.21 317.987C2249.8 312.878 2258.74 310.127 2267.89 310.082C2277.04 310.037 2285.99 312.7 2293.64 317.735C2298.76 321.111 2303.16 325.47 2306.58 330.559C2310.01 335.648 2312.39 341.367 2313.59 347.384C2314.79 353.4 2314.79 359.595 2313.58 365.61C2312.37 371.624 2309.98 377.339 2306.54 382.422Z" fill="url(#paint15_radial_113_2)"/>
<path d="M1816.36 160.593C1814.56 169.546 1810.15 177.765 1803.68 184.213C1797.21 190.662 1788.99 195.051 1780.03 196.828C1771.07 198.604 1761.79 197.688 1753.35 194.194C1744.92 190.701 1737.7 184.787 1732.62 177.199C1727.54 169.611 1724.83 160.688 1724.81 151.556C1724.79 142.425 1727.49 133.494 1732.54 125.89C1737.6 118.285 1744.79 112.349 1753.22 108.829C1761.64 105.309 1770.92 104.363 1779.89 106.112C1785.86 107.278 1791.56 109.615 1796.63 112.988C1801.71 116.362 1806.06 120.705 1809.45 125.769C1812.84 130.831 1815.2 136.515 1816.38 142.491C1817.57 148.468 1817.56 154.62 1816.36 160.593Z" fill="url(#paint16_radial_113_2)"/>
<path d="M1278.75 143.033C1280.52 152.025 1279.6 161.343 1276.08 169.809C1272.57 178.276 1266.63 185.51 1259 190.6C1251.38 195.69 1242.42 198.407 1233.25 198.407C1224.08 198.407 1215.12 195.691 1207.5 190.602C1199.88 185.513 1193.93 178.278 1190.41 169.812C1186.9 161.346 1185.97 152.029 1187.75 143.036C1189.53 134.043 1193.93 125.78 1200.4 119.288C1206.88 112.796 1215.13 108.368 1224.11 106.562C1230.1 105.36 1236.26 105.35 1242.24 106.534C1248.23 107.717 1253.92 110.07 1259 113.459C1264.07 116.847 1268.43 121.203 1271.82 126.278C1275.21 131.353 1277.56 137.047 1278.75 143.033Z" fill="url(#paint17_radial_113_2)"/>
<path d="M1503.43 409.588L1615.39 215.825H1391.61L1503.43 409.588Z" fill="url(#paint18_radial_113_2)"/>
</g>
</g>
<defs>
<linearGradient id="paint0_linear_113_2" x1="2525.97" y1="480.882" x2="366.063" y2="2640.94" gradientUnits="userSpaceOnUse">
<stop stop-color="#F9DF7B"/>
<stop offset="0.2" stop-color="#B57E10"/>
<stop offset="0.26" stop-color="#B78114"/>
<stop offset="0.32" stop-color="#BF8C1F"/>
<stop offset="0.38" stop-color="#CB9E33"/>
<stop offset="0.44" stop-color="#DDB64E"/>
<stop offset="0.49" stop-color="#F3D671"/>
<stop offset="0.51" stop-color="#F9DF7B"/>
<stop offset="0.52" stop-color="#FFF3A6"/>
<stop offset="0.59" stop-color="#F9DF7B"/>
<stop offset="0.84" stop-color="#B57E10"/>
<stop offset="0.95" stop-color="#E5C35C"/>
<stop offset="1" stop-color="#F9DF7B"/>
</linearGradient>
<radialGradient id="paint1_radial_113_2" cx="0" cy="0" r="1" gradientUnits="userSpaceOnUse" gradientTransform="translate(1503.57 1503.43) scale(1480.31 1480.31)">
<stop stop-color="#5C573A"/>
<stop offset="0.85" stop-color="#580043"/>
<stop offset="1" stop-color="#300025"/>
</radialGradient>
<radialGradient id="paint2_radial_113_2" cx="0" cy="0" r="1" gradientUnits="userSpaceOnUse" gradientTransform="translate(1299.94 2774.96) rotate(-169.028) scale(70.5673 70.5672)">
<stop stop-color="#F5D919"/>
<stop offset="0.85" stop-color="#F16922"/>
<stop offset="1" stop-color="#F5D919"/>
</radialGradient>
<radialGradient id="paint3_radial_113_2" cx="0" cy="0" r="1" gradientUnits="userSpaceOnUse" gradientTransform="translate(1760.43 2871.47) rotate(168.69) scale(70.691 70.6911)">
<stop stop-color="#F5D919"/>
<stop offset="0.85" stop-color="#F16922"/>
<stop offset="1" stop-color="#F5D919"/>
</radialGradient>
<radialGradient id="paint4_radial_113_2" cx="0" cy="0" r="1" gradientUnits="userSpaceOnUse" gradientTransform="translate(757.452 360.971) rotate(-34.0075) scale(70.7795 70.7796)">
<stop stop-color="#F5D919"/>
<stop offset="0.85" stop-color="#F16922"/>
<stop offset="1" stop-color="#F5D919"/>
</radialGradient>
<radialGradient id="paint5_radial_113_2" cx="0" cy="0" r="1" gradientUnits="userSpaceOnUse" gradientTransform="translate(413.605 687.159) rotate(-56.4695) scale(70.3867 70.3867)">
<stop stop-color="#F5D919"/>
<stop offset="0.85" stop-color="#F16922"/>
<stop offset="1" stop-color="#F5D919"/>
</radialGradient>
<radialGradient id="paint6_radial_113_2" cx="0" cy="0" r="1" gradientUnits="userSpaceOnUse" gradientTransform="translate(216.217 1210.47) rotate(-79.0278) scale(70.5674 70.5673)">
<stop stop-color="#F5D919"/>
<stop offset="0.85" stop-color="#F16922"/>
<stop offset="1" stop-color="#F5D919"/>
</radialGradient>
<radialGradient id="paint7_radial_113_2" cx="0" cy="0" r="1" gradientUnits="userSpaceOnUse" gradientTransform="translate(135.2 1759.89) rotate(-101.31) scale(70.6911 70.6911)">
<stop stop-color="#F5D919"/>
<stop offset="0.85" stop-color="#F16922"/>
<stop offset="1" stop-color="#F5D919"/>
</radialGradient>
<radialGradient id="paint8_radial_113_2" cx="0" cy="0" r="1" gradientUnits="userSpaceOnUse" gradientTransform="translate(426.754 2294.75) rotate(-124.007) scale(70.7796 70.7795)">
<stop stop-color="#F5D919"/>
<stop offset="0.85" stop-color="#F16922"/>
<stop offset="1" stop-color="#F5D919"/>
</radialGradient>
<radialGradient id="paint9_radial_113_2" cx="0" cy="0" r="1" gradientUnits="userSpaceOnUse" gradientTransform="translate(768.99 2520.08) rotate(-146.47) scale(70.3867 70.3867)">
<stop stop-color="#F5D919"/>
<stop offset="0.85" stop-color="#F16922"/>
<stop offset="1" stop-color="#F5D919"/>
</radialGradient>
<radialGradient id="paint10_radial_113_2" cx="0" cy="0" r="1" gradientUnits="userSpaceOnUse" gradientTransform="translate(2360.59 2625.49) rotate(145.993) scale(70.7796 70.7796)">
<stop stop-color="#F5D919"/>
<stop offset="0.85" stop-color="#F16922"/>
<stop offset="1" stop-color="#F5D919"/>
</radialGradient>
<radialGradient id="paint11_radial_113_2" cx="0" cy="0" r="1" gradientUnits="userSpaceOnUse" gradientTransform="translate(2601.84 2164.57) rotate(123.531) scale(70.3868 70.3868)">
<stop stop-color="#F5D919"/>
<stop offset="0.85" stop-color="#F16922"/>
<stop offset="1" stop-color="#F5D919"/>
</radialGradient>
<radialGradient id="paint12_radial_113_2" cx="0" cy="0" r="1" gradientUnits="userSpaceOnUse" gradientTransform="translate(2864.46 1691.09) rotate(100.972) scale(70.5673 70.5673)">
<stop stop-color="#F5D919"/>
<stop offset="0.85" stop-color="#F16922"/>
<stop offset="1" stop-color="#F5D919"/>
</radialGradient>
<radialGradient id="paint13_radial_113_2" cx="0" cy="0" r="1" gradientUnits="userSpaceOnUse" gradientTransform="translate(2872.13 1246.25) rotate(78.69) scale(70.691 70.6909)">
<stop stop-color="#F5D919"/>
<stop offset="0.85" stop-color="#F16922"/>
<stop offset="1" stop-color="#F5D919"/>
</radialGradient>
<radialGradient id="paint14_radial_113_2" cx="0" cy="0" r="1" gradientUnits="userSpaceOnUse" gradientTransform="translate(2691.27 691.61) rotate(55.9925) scale(70.7795 70.7795)">
<stop stop-color="#F5D919"/>
<stop offset="0.85" stop-color="#F16922"/>
<stop offset="1" stop-color="#F5D919"/>
</radialGradient>
<radialGradient id="paint15_radial_113_2" cx="0" cy="0" r="1" gradientUnits="userSpaceOnUse" gradientTransform="translate(2246.48 331.714) rotate(33.5305) scale(70.3867 70.3867)">
<stop stop-color="#F5D919"/>
<stop offset="0.85" stop-color="#F16922"/>
<stop offset="1" stop-color="#F5D919"/>
</radialGradient>
<radialGradient id="paint16_radial_113_2" cx="0" cy="0" r="1" gradientUnits="userSpaceOnUse" gradientTransform="translate(1780.59 126.57) rotate(10.9722) scale(70.5673 70.5673)">
<stop stop-color="#F5D919"/>
<stop offset="0.85" stop-color="#F16922"/>
<stop offset="1" stop-color="#F5D919"/>
</radialGradient>
<radialGradient id="paint17_radial_113_2" cx="0" cy="0" r="1" gradientUnits="userSpaceOnUse" gradientTransform="translate(1246.91 134.545) rotate(-11.31) scale(70.691 70.6911)">
<stop stop-color="#F5D919"/>
<stop offset="0.85" stop-color="#F16922"/>
<stop offset="1" stop-color="#F5D919"/>
</radialGradient>
<radialGradient id="paint18_radial_113_2" cx="0" cy="0" r="1" gradientUnits="userSpaceOnUse" gradientTransform="translate(1513.03 487.033) scale(399.683 399.683)">
<stop stop-color="#5C573A"/>
<stop offset="0.85" stop-color="#580043"/>
<stop offset="1" stop-color="#300025"/>
</radialGradient>
<clipPath id="clip0_113_2">
<rect width="3007" height="3007" fill="white"/>
</clipPath>
</defs>
</svg>
